bluetooth.c:80:6:MX_USART1_UART_Init	8	static
bluetooth.c:99:6:BT_Init	16	static
bluetooth.c:126:7:BT_Init_SM	8	static
bluetooth.c:175:6:RXNE_IT_Enable	16	static
bluetooth.c:183:6:Binary_To_HEX_Array	32	static
bluetooth.c:201:10:HEX_Array_To_Binary	24	static
bluetooth.c:225:6:Write_To_Characteristic	32	static
bluetooth.c:235:6:Write_Pressure_To_Characteristic	8	static
bluetooth.c:246:6:Write_Temp_To_Characteristic	8	static
bluetooth.c:259:6:Write_Battery_Level_To_Characteristic	8	static
bluetooth.c:268:6:Write_LED_Color_To_Characteristic	16	static
bluetooth.c:282:9:array_compare	32	static
bluetooth.c:295:6:UART_State_Machine	24	static
bluetooth.c:422:6:Add_UART_RDR_To_C_Buffer	16	static
