circular_buffer.c:10:6:Add_Array_To_C_Buffer	40	static
circular_buffer.c:20:6:Add_Element_To_C_Buffer	16	static
circular_buffer.c:43:6:Delete_Element_From_C_Buffer	16	static
circular_buffer.c:60:6:Delete_Elements_From_C_Buffer	24	static
circular_buffer.c:72:6:Transfer_Element_From_C_Buffer_To_Variable	16	static
circular_buffer.c:84:6:Transfer_Elements_From_C_Buffer_To_Array	40	static
